116736 440114 449
656868 803960 504
372789 25638 443
383449 501963 449
473536 417540 444
877092 744832 525
204583 219156 386
725101 445724 509
205767 496086 449
262206 105392 443
878120 846934 432
446864 939044 525
933836 250346 525
17579 599481 470
982989 960156 458
356854 148676 443
803814 692308 504
483542 186449 449
58840 561546 470
273308 209761 443
606933 280624 470
841453 226440 525
218074 672649 509
526932 335740 470
348728 491750 449
703616 365304 509
232512 744802 509
179646 737556 509
405219 647281 509
282879 556758 470
325274 942704 525
841142 360870 525
998647 521464 525
465709 227618 449
885588 799794 525
902377 520259 525
71651 724467 509
9888 21938 279
70114 256295 443
513941 184920 470
492939 638520 509
633741 548604 509
819911 528329 509
449213 234816 449
256114 231805 381
953091 699625 525
611484 209365 470
498801 866284 525
801435 920581 525
930860 818018 525
223330 868765 525
923896 804236 525
481564 711860 509
190017 653312 509
420388 466391 444
522267 371152 470
885293 930538 476
971033 458962 525
504912 344181 449
212576 655731 509
470565 297628 449
171384 265622 443
997208 553983 525
278192 29003 443
469123 372061 449
149997 535219 470
643958 3184 509
51835 307748 443
724894 731904 380
429422 573504 470
253206 18302 443
683676 854895 525
933998 618332 525
162600 625529 470
805019 612561 509
117095 337721 443
802389 823394 450
580123 178113 470
113982 765319 509
18018 50895 324
570511 935134 525
82775 262388 443
332742 679518 509
827470 730594 468
274872 219061 443
806123 945888 525
844280 716780 525
94567 969463 525
653010 656133 385
331760 791324 509
829221 146114 509
109719 108673 292
837715 234149 509
934086 812081 525
92532 185865 383
952097 11305 525
598386 325697 470
715502 787846 468
191106 99475 383
780505 907384 525
747177 3626 509
128186 783866 509
224641 112466 386
761545 502391 509
980028 200186 525
488728 416333 444
677420 947556 525
437504 116040 449
165746 116630 383
55608 524357 470
582716 830366 509
900569 925568 476
599415 580920 434
929612 977 525
527308 119671 470
442842 163660 449
935827 999530 507
515363 106445 470
879932 403107 525
37 286681 443
853478 452914 525
891838 462148 525
548608 167682 470
875397 731727 525
479063 573028 470
442629 964836 525
711079 309941 509
750409 444440 509
86469 131029 354
567190 835408 509
270600 594233 470
345125 489083 449
176921 356758 443
225003 295000 443
626970 104744 509
281590 131570 443
828585 490899 509
446319 543850 470
31771 676112 509
962703 129684 525
801556 648601 504
622282 452284 470
55615 450320 449
129797 141848 344
910846 294783 525
829680 965463 525
639838 916969 525
699749 806237 504
919160 862121 476
716722 971653 525
447759 537859 470
537785 492147 470
334526 435299 449
693048 215781 509
39523 395957 443
304429 793423 509
641223 252674 509
835733 639805 504
772098 356571 509
446686 708828 509
687766 117856 509
389246 454585 449
809780 572771 509
853494 739467 525
816070 478207 509
757058 162594 509
347196 174582 443
284914 306430 389
105776 989454 525
209508 832272 509
280782 288131 376
146695 19107 375
846225 787403 525
926257 731144 525
348656 181285 443
211949 801433 509
787595 249209 509
286729 999182 525
769887 514164 509
705189 618665 509
982870 83722 525
432745 782689 509
705773 128520 509
329482 184907 443
440073 991921 525
200040 805167 509
3017 17493 276
831697 557616 509
82392 252697 443
896506 951976 507
271825 293602 389
429433 611882 470
711695 790339 468
754704 522522 509
880215 465190 525
241860 376472 441
55159 630614 509
124144 752116 509
219088 815120 509
664521 467438 509
412796 240658 449
295385 374633 441
888515 622547 525
706347 79386 509
121616 764889 509
846194 264297 525
245067 550019 470
481114 770401 509
714479 527831 509
890114 620812 525
683288 573784 509
169869 65855 383
523476 314879 470
601627 91087 470
775586 14490 509
147158 296363 443
381988 651236 509
795393 729247 468
839665 486190 525
145990 627681 509
996983 577626 525
144257 605952 470
88140 69153 351
460201 18405 449
12182 852555 525
463341 669459 509
234575 64082 443
161563 865303 525
123586 23718 354
9124 326862 443
978015 735664 525
777017 55548 509
974530 566337 525
491003 775420 509
555143 204287 470
943090 248436 525
194365 767011 509
478430 499400 426
457795 963039 525
286666 996805 525
136104 307964 443
705833 715083 411
257372 597485 470
334527 310113 384
5730 108073 354
234726 225394 443
741341 67350 509
718519 231304 509
718317 247715 509
113730 223516 386
788073 155443 509
417093 790224 509
378044 719220 509
332101 297394 384
